0,30.9198,1042.35,1062.53,0.7,-0.7,0,0
0.00401606,31.0683,1041.63,1063.69,0.7,-0.7,0,0
0.00803213,31.9719,1040.84,1064.99,0.7,-0.7,0,0
0.0120482,32.8441,1039.9,1066.49,0.7,-0.7,0,0
0.0160643,33.6836,1038.8,1068.18,0.7,-0.7,0,0
0.0200803,34.4906,1037.54,1070.08,0.7,-0.7,0,0
0.0240964,35.2671,1036.11,1072.19,0.7,-0.7,0,0
0.0281124,36.0165,1034.53,1074.47,0.7,-0.7,0,0
0.0321285,36.7441,1032.82,1076.92,0.7,-0.7,0,0
0.0361446,37.4554,1030.99,1079.51,0.7,-0.7,0,0
0.0401606,38.1563,1029.07,1082.22,0.7,-0.7,0,0
0.0441767,38.8517,1027.07,1085.02,0.7,-0.7,0,0
0.0481928,39.5446,1025,1087.9,0.7,-0.7,0,0
0.0522088,40.2363,1022.86,1090.86,0.7,-0.7,0,0
0.0562249,40.9259,1020.62,1093.92,0.7,-0.7,0,0
0.060241,41.6114,1018.29,1097.1,0.7,-0.7,0,0
0.064257,42.2904,1015.83,1100.43,0.7,-0.7,0,0
0.0682731,42.961,1013.22,1103.93,0.7,-0.7,0,0
0.0722892,43.6227,1010.45,1107.61,0.7,-0.7,0,0
0.0763052,44.2776,1007.53,1111.49,0.7,-0.7,0,0
0.0803213,44.9306,1004.46,1115.54,0.7,-0.7,0,0
0.0843373,45.5892,1001.27,1119.74,0.7,-0.7,0,0
0.0883534,46.2631,998.001,1124.04,0.7,-0.7,0,0
0.0923695,46.9628,994.697,1128.39,0.7,-0.7,0,0
0.0963855,47.6987,991.405,1132.74,0.7,-0.7,0,0
0.100402,48.4801,988.164,1137.05,0.7,-0.7,0,0
0.104418,49.3144,984.998,1141.28,0.7,-0.7,0,0
0.108434,50.2067,981.917,1145.43,0.7,-0.7,0,0
0.11245,51.1599,978.916,1149.51,0.7,-0.7,0,0
0.116466,52.175,975.976,1153.55,0.7,-0.7,0,0
0.120482,53.2516,973.072,1157.58,0.7,-0.7,0,0
0.124498,54.3877,970.178,1161.63,0.7,-0.7,0,0
0.128514,55.5807,967.273,1165.73,0.7,-0.7,0,0
0.13253,56.8274,964.344,1169.9,0.7,-0.7,0,0
0.136546,58.1243,961.393,1174.12,0.7,-0.7,0,0
0.140562,59.4685,958.435,1178.38,0.7,-0.7,0,0
0.144578,60.8591,955.495,1182.65,0.7,-0.7,0,0
0.148594,62.295,952.604,1186.88,0.7,-0.7,0,0
0.15261,63.7777,949.793,1191.03,0.7,-0.7,0,0
0.156627,65.311,947.087,1195.07,0.7,-0.7,0,0
0.160643,66.9005,944.5,1198.99,0.7,-0.7,0,0
0.164659,68.5529,942.037,1202.77,0.7,-0.7,0,0
0.168675,70.2753,939.688,1206.45,0.7,-0.7,0,0
0.172691,72.0731,937.436,1210.03,0.7,-0.7,0,0
0.176707,73.9496,935.257,1213.56,0.7,-0.7,0,0
0.180723,75.9041,933.13,1217.07,0.7,-0.7,0,0
0.184739,77.9313,931.035,1220.58,0.7,-0.7,0,0
0.188755,80.0218,928.962,1224.1,0.7,-0.7,0,0
0.192771,82.1631,926.908,1227.63,0.7,-0.7,0,0
0.196787,84.3428,924.88,1231.16,0.7,-0.7,0,0
0.200803,86.548,922.892,1234.66,0.7,-0.7,0,0
0.204819,88.7702,920.961,1238.1,0.7,-0.7,0,0
0.208835,91.0062,919.104,1241.46,0.7,-0.7,0,0
0.212851,93.2588,917.332,1244.71,0.7,-0.7,0,0
0.216867,95.5357,915.653,1247.84,0.7,-0.7,0,0
0.220884,97.8478,914.062,1250.86,0.7,-0.7,0,0
0.2249,100.207,912.553,1253.78,0.7,-0.7,0,0
0.228916,102.623,911.111,1256.62,0.7,-0.7,0,0
0.232932,105.101,909.719,1259.42,0.7,-0.7,0,0
0.236948,107.639,908.362,1262.2,0.7,-0.7,0,0
0.240964,110.229,907.029,1264.97,0.7,-0.7,0,0
0.24498,112.857,905.713,1267.75,0.7,-0.7,0,0
0.248996,115.506,904.415,1270.52,0.7,-0.7,0,0
0.253012,118.157,903.14,1273.28,0.7,-0.7,0,0
0.257028,120.797,901.9,1275.99,0.7,-0.7,0,0
0.261044,123.417,900.704,1278.65,0.7,-0.7,0,0
0.26506,126.016,899.564,1281.22,0.7,-0.7,0,0
0.269076,128.602,898.487,1283.69,0.7,-0.7,0,0
0.273092,131.184,897.477,1286.06,0.7,-0.7,0,0
0.277108,133.78,896.53,1288.33,0.7,-0.7,0,0
0.281124,136.402,895.642,1290.51,0.7,-0.7,0,0
0.285141,139.061,894.803,1292.62,0.7,-0.7,0,0
0.289157,141.761,894.003,1294.68,0.7,-0.7,0,0
0.293173,144.498,893.233,1296.71,0.7,-0.7,0,0
0.297189,147.261,892.486,1298.72,0.7,-0.7,0,0
0.301205,150.036,891.76,1300.71,0.7,-0.7,0,0
0.305221,152.804,891.056,1302.67,0.7,-0.7,0,0
0.309237,155.552,890.378,1304.61,0.7,-0.7,0,0
0.313253,158.27,889.734,1306.5,0.7,-0.7,0,0
0.317269,160.955,889.133,1308.32,0.7,-0.7,0,0
0.321285,163.614,888.58,1310.06,0.7,-0.7,0,0
0.325301,166.257,888.081,1311.71,0.7,-0.7,0,0
0.329317,168.9,887.64,1313.26,0.7,-0.7,0,0
0.333333,171.559,887.257,1314.72,0.7,-0.7,0,0
0.337349,174.246,886.93,1316.1,0.7,-0.7,0,0
0.341365,176.967,886.654,1317.4,0.7,-0.7,0,0
0.345382,179.721,886.426,1318.64,0.7,-0.7,0,0
0.349398,182.499,886.241,1319.83,0.7,-0.7,0,0
0.353414,185.287,886.096,1320.97,0.7,-0.7,0,0
0.35743,188.068,885.99,1322.07,0.7,-0.7,0,0
0.361446,190.825,885.922,1323.12,0.7,-0.7,0,0
0.365462,193.547,885.895,1324.12,0.7,-0.7,0,0
0.369478,196.228,885.912,1325.07,0.7,-0.7,0,0
0.373494,198.871,885.978,1325.94,0.7,-0.7,0,0
0.37751,201.486,886.096,1326.73,0.7,-0.7,0,0
0.381526,204.086,886.272,1327.43,0.7,-0.7,0,0
0.385542,206.686,886.513,1328.03,0.7,-0.7,0,0
0.389558,209.299,886.821,1328.54,0.7,-0.7,0,0
0.393574,211.93,887.201,1328.96,0.7,-0.7,0,0
0.39759,214.58,887.656,1329.28,0.7,-0.7,0,0
0.401606,217.242,888.186,1329.51,0.7,-0.7,0,0
0.405622,219.899,888.79,1329.65,0.7,-0.7,0,0
0.409639,222.533,889.465,1329.72,0.7,-0.7,0,0
0.413655,225.125,890.205,1329.72,0.7,-0.7,0,0
0.417671,227.659,891.002,1329.65,0.7,-0.7,0,0
0.421687,230.123,891.85,1329.51,0.7,-0.7,0,0
0.425703,232.513,892.74,1329.31,0.7,-0.7,0,0
0.429719,234.833,893.669,1329.06,0.7,-0.7,0,0
0.433735,237.09,894.633,1328.74,0.7,-0.7,0,0
0.437751,239.296,895.635,1328.37,0.7,-0.7,0,0
0.441767,241.462,896.681,1327.92,0.7,-0.7,0,0
0.445783,243.597,897.779,1327.39,0.7,-0.7,0,0
0.449799,245.708,898.939,1326.78,0.7,-0.7,0,0
0.453815,247.794,900.169,1326.08,0.7,-0.7,0,0
0.457831,249.852,901.476,1325.28,0.7,-0.7,0,0
0.461847,251.874,902.862,1324.39,0.7,-0.7,0,0
0.465863,253.851,904.323,1323.41,0.7,-0.7,0,0
0.46988,255.774,905.85,1322.34,0.7,-0.7,0,0
0.473896,257.638,907.43,1321.21,0.7,-0.7,0,0
0.477912,259.438,909.049,1320.02,0.7,-0.7,0,0
0.481928,261.175,910.691,1318.79,0.7,-0.7,0,0
0.485944,262.852,912.346,1317.52,0.7,-0.7,0,0
0.48996,264.474,914.008,1316.21,0.7,-0.7,0,0
0.493976,266.049,915.678,1314.87,0.7,-0.7,0,0
0.497992,267.582,917.364,1313.49,0.7,-0.7,0,0
0.502008,269.077,919.078,1312.04,0.7,-0.7,0,0
0.506024,270.537,920.836,1310.51,0.7,-0.7,0,0
0.51004,271.962,922.652,1308.9,0.7,-0.7,0,0
0.514056,273.35,924.534,1307.18,0.7,-0.7,0,0
0.518072,274.699,926.488,1305.36,0.7,-0.7,0,0
0.522088,276.005,928.51,1303.43,0.7,-0.7,0,0
0.526104,277.264,930.587,1301.42,0.7,-0.7,0,0
0.53012,278.472,932.702,1299.34,0.7,-0.7,0,0
0.534137,279.626,934.838,1297.21,0.7,-0.7,0,0
0.538153,280.725,936.974,1295.05,0.7,-0.7,0,0
0.542169,281.768,939.097,1292.86,0.7,-0.7,0,0
0.546185,282.755,941.201,1290.66,0.7,-0.7,0,0
0.550201,283.69,943.289,1288.42,0.7,-0.7,0,0
0.554217,284.574,945.371,1286.15,0.7,-0.7,0,0
0.558233,285.414,947.464,1283.8,0.7,-0.7,0,0
0.562249,286.215,949.586,1281.37,0.7,-0.7,0,0
0.566265,286.984,951.754,1278.82,0.7,-0.7,0,0
0.570281,287.727,953.98,1276.15,0.7,-0.7,0,0
0.574297,288.449,956.268,1273.34,0.7,-0.7,0,0
0.578313,289.155,958.614,1270.41,0.7,-0.7,0,0
0.582329,289.845,961.004,1267.38,0.7,-0.7,0,0
0.586345,290.519,963.418,1264.28,0.7,-0.7,0,0
0.590361,291.175,965.837,1261.12,0.7,-0.7,0,0
0.594378,291.808,968.241,1257.94,0.7,-0.7,0,0
0.598394,292.414,970.618,1254.75,0.7,-0.7,0,0
0.60241,292.992,972.962,1251.55,0.7,-0.7,0,0
0.606426,293.539,975.28,1248.33,0.7,-0.7,0,0
0.610442,294.059,977.586,1245.07,0.7,-0.7,0,0
0.614458,294.556,979.898,1241.72,0.7,-0.7,0,0
0.618474,295.037,982.237,1238.27,0.7,-0.7,0,0
0.62249,295.51,984.621,1234.68,0.7,-0.7,0,0
0.626506,295.982,987.061,1230.95,0.7,-0.7,0,0
0.630522,296.461,989.558,1227.07,0.7,-0.7,0,0
0.634538,296.949,992.103,1223.06,0.7,-0.7,0,0
0.638554,297.448,994.681,1218.97,0.7,-0.7,0,0
0.64257,297.954,997.266,1214.83,0.7,-0.7,0,0
0.646586,298.463,999.836,1210.7,0.7,-0.7,0,0
0.650602,298.969,1002.37,1206.62,0.7,-0.7,0,0
0.654618,299.466,1004.85,1202.61,0.7,-0.7,0,0
0.658635,299.95,1007.28,1198.69,0.7,-0.7,0,0
0.662651,300.418,1009.66,1194.84,0.7,-0.7,0,0
0.666667,300.872,1012.01,1191.04,0.7,-0.7,0,0
0.670683,301.314,1014.34,1187.25,0.7,-0.7,0,0
0.674699,301.748,1016.68,1183.45,0.7,-0.7,0,0
0.678715,302.178,1019.05,1179.61,0.7,-0.7,0,0
0.682731,302.608,1021.44,1175.7,0.7,-0.7,0,0
0.686747,303.039,1023.87,1171.73,0.7,-0.7,0,0
0.690763,303.469,1026.32,1167.73,0.7,-0.7,0,0
0.694779,303.892,1028.78,1163.72,0.7,-0.7,0,0
0.698795,304.303,1031.22,1159.75,0.7,-0.7,0,0
0.702811,304.694,1033.62,1155.87,0.7,-0.7,0,0
0.706827,305.057,1035.97,1152.11,0.7,-0.7,0,0
0.710843,305.387,1038.24,1148.51,0.7,-0.7,0,0
0.714859,305.683,1040.44,1145.06,0.7,-0.7,0,0
0.718876,305.945,1042.58,1141.77,0.7,-0.7,0,0
0.722892,306.178,1044.67,1138.6,0.7,-0.7,0,0
0.726908,306.39,1046.71,1135.54,0.7,-0.7,0,0
0.730924,306.587,1048.75,1132.55,0.7,-0.7,0,0
0.73494,306.776,1050.77,1129.6,0.7,-0.7,0,0
0.738956,306.959,1052.8,1126.69,0.7,-0.7,0,0
0.742972,307.136,1054.84,1123.8,0.7,-0.7,0,0
0.746988,307.302,1056.86,1120.95,0.7,-0.7,0,0
0.751004,307.448,1058.86,1118.15,0.7,-0.7,0,0
0.75502,307.565,1060.82,1115.43,0.7,-0.7,0,0
0.759036,307.643,1062.71,1112.83,0.7,-0.7,0,0
0.763052,307.676,1064.53,1110.34,0.7,-0.7,0,0
0.767068,307.661,1066.26,1108.01,0.7,-0.7,0,0
0.771084,307.601,1067.89,1105.81,0.7,-0.7,0,0
0.7751,307.505,1069.43,1103.75,0.7,-0.7,0,0
0.779116,307.384,1070.9,1101.81,0.7,-0.7,0,0
0.783133,307.254,1072.29,1099.98,0.7,-0.7,0,0
0.787149,307.127,1073.63,1098.22,0.7,-0.7,0,0
0.791165,307.013,1074.93,1096.52,0.7,-0.7,0,0
0.795181,306.918,1076.19,1094.87,0.7,-0.7,0,0
0.799197,306.839,1077.42,1093.27,0.7,-0.7,0,0
0.803213,306.769,1078.6,1091.71,0.7,-0.7,0,0
0.807229,306.699,1079.75,1090.22,0.7,-0.7,0,0
0.811245,306.617,1080.85,1088.79,0.7,-0.7,0,0
0.815261,306.512,1081.89,1087.44,0.7,-0.7,0,0
0.819277,306.377,1082.86,1086.19,0.7,-0.7,0,0
0.823293,306.212,1083.77,1085.03,0.7,-0.7,0,0
0.827309,306.019,1084.61,1083.97,0.7,-0.7,0,0
0.831325,305.809,1085.38,1082.99,0.7,-0.7,0,0
0.835341,305.592,1086.09,1082.1,0.7,-0.7,0,0
0.839357,305.38,1086.74,1081.27,0.7,-0.7,0,0
0.843373,305.183,1087.35,1080.5,0.7,-0.7,0,0
0.84739,305.004,1087.92,1079.78,0.7,-0.7,0,0
0.851406,304.843,1088.45,1079.1,0.7,-0.7,0,0
0.855422,304.691,1088.94,1078.45,0.7,-0.7,0,0
0.859438,304.537,1089.41,1077.84,0.7,-0.7,0,0
0.863454,304.37,1089.86,1077.26,0.7,-0.7,0,0
0.86747,304.177,1090.27,1076.73,0.7,-0.7,0,0
0.871486,303.951,1090.66,1076.23,0.7,-0.7,0,0
0.875502,303.689,1091.01,1075.78,0.7,-0.7,0,0
0.879518,303.397,1091.35,1075.37,0.7,-0.7,0,0
0.883534,303.084,1091.65,1075,0.7,-0.7,0,0
0.88755,302.767,1091.93,1074.67,0.7,-0.7,0,0
0.891566,302.459,1092.19,1074.38,0.7,-0.7,0,0
0.895582,302.175,1092.42,1074.11,0.7,-0.7,0,0
0.899598,301.924,1092.64,1073.86,0.7,-0.7,0,0
0.903614,301.707,1092.83,1073.64,0.7,-0.7,0,0
0.907631,301.522,1093.02,1073.43,0.7,-0.7,0,0
0.911647,301.359,1093.19,1073.23,0.7,-0.7,0,0
0.915663,301.207,1093.35,1073.05,0.7,-0.7,0,0
0.919679,301.053,1093.5,1072.88,0.7,-0.7,0,0
0.923695,300.887,1093.64,1072.74,0.7,-0.7,0,0
0.927711,300.706,1093.77,1072.61,0.7,-0.7,0,0
0.931727,300.511,1093.9,1072.5,0.7,-0.7,0,0
0.935743,300.308,1094.02,1072.41,0.7,-0.7,0,0
0.939759,300.111,1094.14,1072.33,0.7,-0.7,0,0
0.943775,299.932,1094.24,1072.28,0.7,-0.7,0,0
0.947791,299.784,1094.34,1072.24,0.7,-0.7,0,0
0.951807,299.678,1094.43,1072.21,0.7,-0.7,0,0
0.955823,299.619,1094.52,1072.19,0.7,-0.7,0,0
0.959839,299.604,1094.59,1072.18,0.7,-0.7,0,0
0.963855,299.628,1094.67,1072.18,0.7,-0.7,0,0
0.967871,299.681,1094.73,1072.18,0.7,-0.7,0,0
0.971888,299.753,1094.79,1072.19,0.7,-0.7,0,0
0.975904,299.832,1094.85,1072.21,0.7,-0.7,0,0
0.97992,299.913,1094.9,1072.23,0.7,-0.7,0,0
0.983936,299.992,1094.95,1072.27,0.7,-0.7,0,0
0.987952,300.072,1095,1072.3,0.7,-0.7,0,0
0.991968,300.157,1095.05,1072.35,0.7,-0.7,0,0
0.995984,300.256,1095.09,1072.4,0.7,-0.7,0,0
1,300.375,1095.12,1072.45,0.7,-0.7,0,0
