0,0.859825,1060.76,1091.1,0.7,-0.7,0,0
0.00371747,0.784397,1059.85,1092.03,0.7,-0.7,0,0
0.00743494,1.66683,1058.82,1093.31,0.7,-0.7,0,0
0.0111524,2.52514,1057.62,1094.76,0.7,-0.7,0,0
0.0148699,3.35803,1056.23,1096.4,0.7,-0.7,0,0
0.0185874,4.16486,1054.67,1098.23,0.7,-0.7,0,0
0.0223048,4.94588,1052.92,1100.24,0.7,-0.7,0,0
0.0260223,5.70217,1050.99,1102.43,0.7,-0.7,0,0
0.0297398,6.43563,1048.91,1104.77,0.7,-0.7,0,0
0.0334572,7.14867,1046.68,1107.25,0.7,-0.7,0,0
0.0371747,7.84355,1044.32,1109.84,0.7,-0.7,0,0
0.0408922,8.52268,1041.86,1112.52,0.7,-0.7,0,0
0.0446097,9.18752,1039.29,1115.28,0.7,-0.7,0,0
0.0483271,9.83842,1036.63,1118.1,0.7,-0.7,0,0
0.0520446,10.4745,1033.87,1121,0.7,-0.7,0,0
0.0557621,11.0939,1030.99,1123.97,0.7,-0.7,0,0
0.0594796,11.6939,1027.96,1127.04,0.7,-0.7,0,0
0.063197,12.2714,1024.78,1130.23,0.7,-0.7,0,0
0.0669145,12.8242,1021.4,1133.56,0.7,-0.7,0,0
0.070632,13.3509,1017.83,1137.05,0.7,-0.7,0,0
0.0743494,13.8522,1014.04,1140.7,0.7,-0.7,0,0
0.0780669,14.3312,1010.06,1144.5,0.7,-0.7,0,0
0.0817844,14.7933,1005.9,1148.44,0.7,-0.7,0,0
0.0855019,15.2468,1001.61,1152.49,0.7,-0.7,0,0
0.0892193,15.7012,997.22,1156.59,0.7,-0.7,0,0
0.0929368,16.1677,992.788,1160.72,0.7,-0.7,0,0
0.0966543,16.6568,988.362,1164.83,0.7,-0.7,0,0
0.100372,17.1784,983.978,1168.88,0.7,-0.7,0,0
0.104089,17.7402,979.659,1172.86,0.7,-0.7,0,0
0.107807,18.348,975.412,1176.76,0.7,-0.7,0,0
0.111524,19.0052,971.228,1180.58,0.7,-0.7,0,0
0.115242,19.7131,967.085,1184.34,0.7,-0.7,0,0
0.118959,20.4713,962.952,1188.08,0.7,-0.7,0,0
0.122677,21.2785,958.798,1191.81,0.7,-0.7,0,0
0.126394,22.1325,954.597,1195.56,0.7,-0.7,0,0
0.130112,23.0311,950.333,1199.35,0.7,-0.7,0,0
0.133829,23.9726,946.003,1203.18,0.7,-0.7,0,0
0.137546,24.9555,941.62,1207.05,0.7,-0.7,0,0
0.141264,25.9794,937.212,1210.93,0.7,-0.7,0,0
0.144981,27.0447,932.817,1214.79,0.7,-0.7,0,0
0.148699,28.154,928.476,1218.6,0.7,-0.7,0,0
0.152416,29.3089,924.227,1222.34,0.7,-0.7,0,0
0.156134,30.5127,920.103,1225.96,0.7,-0.7,0,0
0.159851,31.7699,916.123,1229.48,0.7,-0.7,0,0
0.163569,33.0852,912.291,1232.87,0.7,-0.7,0,0
0.167286,34.4638,908.598,1236.15,0.7,-0.7,0,0
0.171004,35.9105,905.023,1239.33,0.7,-0.7,0,0
0.174721,37.4295,901.538,1242.45,0.7,-0.7,0,0
0.178439,39.0236,898.113,1245.53,0.7,-0.7,0,0
0.182156,40.6936,894.724,1248.57,0.7,-0.7,0,0
0.185874,42.438,891.35,1251.62,0.7,-0.7,0,0
0.189591,44.2523,887.985,1254.65,0.7,-0.7,0,0
0.193309,46.1296,884.632,1257.68,0.7,-0.7,0,0
0.197026,48.0608,881.306,1260.69,0.7,-0.7,0,0
0.200743,50.0375,878.029,1263.65,0.7,-0.7,0,0
0.204461,52.0493,874.825,1266.55,0.7,-0.7,0,0
0.208178,54.0889,871.715,1269.36,0.7,-0.7,0,0
0.211896,56.1519,868.72,1272.07,0.7,-0.7,0,0
0.215613,58.2375,865.846,1274.66,0.7,-0.7,0,0
0.219331,60.3488,863.094,1277.14,0.7,-0.7,0,0
0.223048,62.4921,860.452,1279.51,0.7,-0.7,0,0
0.226766,64.6757,857.903,1281.79,0.7,-0.7,0,0
0.230483,66.9085,855.424,1283.99,0.7,-0.7,0,0
0.234201,69.1982,852.995,1286.13,0.7,-0.7,0,0
0.237918,71.5498,850.594,1288.22,0.7,-0.7,0,0
0.241636,73.9639,848.211,1290.29,0.7,-0.7,0,0
0.245353,76.4365,845.839,1292.32,0.7,-0.7,0,0
0.249071,78.9584,843.481,1294.31,0.7,-0.7,0,0
0.252788,81.5166,841.148,1296.27,0.7,-0.7,0,0
0.256506,84.0967,838.856,1298.17,0.7,-0.7,0,0
0.260223,86.6834,836.62,1300,0.7,-0.7,0,0
0.263941,89.2638,834.456,1301.74,0.7,-0.7,0,0
0.267658,91.829,832.374,1303.38,0.7,-0.7,0,0
0.271375,94.3759,830.38,1304.92,0.7,-0.7,0,0
0.275093,96.9065,828.471,1306.36,0.7,-0.7,0,0
0.27881,99.4278,826.639,1307.68,0.7,-0.7,0,0
0.282528,101.95,824.871,1308.91,0.7,-0.7,0,0
0.286245,104.486,823.152,1310.05,0.7,-0.7,0,0
0.289963,107.045,821.467,1311.11,0.7,-0.7,0,0
0.29368,109.637,819.804,1312.11,0.7,-0.7,0,0
0.297398,112.264,818.157,1313.04,0.7,-0.7,0,0
0.301115,114.926,816.526,1313.92,0.7,-0.7,0,0
0.304833,117.616,814.916,1314.74,0.7,-0.7,0,0
0.30855,120.324,813.338,1315.51,0.7,-0.7,0,0
0.312268,123.036,811.808,1316.23,0.7,-0.7,0,0
0.315985,125.739,810.341,1316.89,0.7,-0.7,0,0
0.319703,128.425,808.952,1317.49,0.7,-0.7,0,0
0.32342,131.085,807.651,1318.02,0.7,-0.7,0,0
0.327138,133.719,806.447,1318.49,0.7,-0.7,0,0
0.330855,136.331,805.342,1318.89,0.7,-0.7,0,0
0.334572,138.931,804.334,1319.21,0.7,-0.7,0,0
0.33829,141.529,803.417,1319.47,0.7,-0.7,0,0
0.342007,144.139,802.583,1319.67,0.7,-0.7,0,0
0.345725,146.772,801.826,1319.8,0.7,-0.7,0,0
0.349442,149.433,801.137,1319.86,0.7,-0.7,0,0
0.35316,152.127,800.511,1319.88,0.7,-0.7,0,0
0.356877,154.849,799.947,1319.84,0.7,-0.7,0,0
0.360595,157.588,799.443,1319.75,0.7,-0.7,0,0
0.364312,160.333,799.005,1319.62,0.7,-0.7,0,0
0.36803,163.066,798.639,1319.45,0.7,-0.7,0,0
0.371747,165.771,798.35,1319.24,0.7,-0.7,0,0
0.375465,168.436,798.147,1319,0.7,-0.7,0,0
0.379182,171.051,798.039,1318.71,0.7,-0.7,0,0
0.3829,173.613,798.032,1318.39,0.7,-0.7,0,0
0.386617,176.123,798.133,1318.03,0.7,-0.7,0,0
0.390335,178.59,798.348,1317.62,0.7,-0.7,0,0
0.394052,181.021,798.679,1317.16,0.7,-0.7,0,0
0.39777,183.429,799.129,1316.64,0.7,-0.7,0,0
0.401487,185.824,799.697,1316.06,0.7,-0.7,0,0
0.405204,188.211,800.38,1315.42,0.7,-0.7,0,0
0.408922,190.595,801.171,1314.73,0.7,-0.7,0,0
0.412639,192.973,802.063,1313.98,0.7,-0.7,0,0
0.416357,195.34,803.046,1313.18,0.7,-0.7,0,0
0.420074,197.684,804.11,1312.35,0.7,-0.7,0,0
0.423792,199.995,805.247,1311.48,0.7,-0.7,0,0
0.427509,202.259,806.448,1310.6,0.7,-0.7,0,0
0.431227,204.468,807.711,1309.69,0.7,-0.7,0,0
0.434944,206.614,809.035,1308.76,0.7,-0.7,0,0
0.438662,208.693,810.427,1307.82,0.7,-0.7,0,0
0.442379,210.706,811.896,1306.84,0.7,-0.7,0,0
0.446097,212.658,813.453,1305.83,0.7,-0.7,0,0
0.449814,214.555,815.112,1304.78,0.7,-0.7,0,0
0.453532,216.404,816.882,1303.67,0.7,-0.7,0,0
0.457249,218.213,818.773,1302.5,0.7,-0.7,0,0
0.460967,219.99,820.785,1301.27,0.7,-0.7,0,0
0.464684,221.737,822.913,1299.97,0.7,-0.7,0,0
0.468401,223.459,825.146,1298.62,0.7,-0.7,0,0
0.472119,225.154,827.465,1297.21,0.7,-0.7,0,0
0.475836,226.82,829.851,1295.77,0.7,-0.7,0,0
0.479554,228.455,832.281,1294.31,0.7,-0.7,0,0
0.483271,230.056,834.738,1292.83,0.7,-0.7,0,0
0.486989,231.621,837.209,1291.34,0.7,-0.7,0,0
0.490706,233.147,839.689,1289.85,0.7,-0.7,0,0
0.494424,234.634,842.183,1288.35,0.7,-0.7,0,0
0.498141,236.083,844.702,1286.82,0.7,-0.7,0,0
0.501859,237.496,847.266,1285.26,0.7,-0.7,0,0
0.505576,238.877,849.893,1283.66,0.7,-0.7,0,0
0.509294,240.228,852.601,1281.99,0.7,-0.7,0,0
0.513011,241.552,855.406,1280.26,0.7,-0.7,0,0
0.516729,242.852,858.313,1278.45,0.7,-0.7,0,0
0.520446,244.128,861.317,1276.56,0.7,-0.7,0,0
0.524164,245.38,864.407,1274.61,0.7,-0.7,0,0
0.527881,246.607,867.561,1272.61,0.7,-0.7,0,0
0.531599,247.807,870.752,1270.58,0.7,-0.7,0,0
0.535316,248.976,873.955,1268.52,0.7,-0.7,0,0
0.539033,250.111,877.145,1266.46,0.7,-0.7,0,0
0.542751,251.209,880.307,1264.4,0.7,-0.7,0,0
0.546468,252.265,883.436,1262.35,0.7,-0.7,0,0
0.550186,253.276,886.537,1260.3,0.7,-0.7,0,0
0.553903,254.239,889.624,1258.23,0.7,-0.7,0,0
0.557621,255.153,892.72,1256.13,0.7,-0.7,0,0
0.561338,256.016,895.849,1253.98,0.7,-0.7,0,0
0.565056,256.827,899.034,1251.76,0.7,-0.7,0,0
0.568773,257.588,902.292,1249.47,0.7,-0.7,0,0
0.572491,258.302,905.632,1247.09,0.7,-0.7,0,0
0.576208,258.973,909.05,1244.63,0.7,-0.7,0,0
0.579926,259.605,912.534,1242.1,0.7,-0.7,0,0
0.583643,260.204,916.06,1239.52,0.7,-0.7,0,0
0.587361,260.777,919.603,1236.9,0.7,-0.7,0,0
0.591078,261.33,923.135,1234.27,0.7,-0.7,0,0
0.594796,261.867,926.632,1231.65,0.7,-0.7,0,0
0.598513,262.391,930.079,1229.04,0.7,-0.7,0,0
0.60223,262.903,933.473,1226.45,0.7,-0.7,0,0
0.605948,263.4,936.821,1223.87,0.7,-0.7,0,0
0.609665,263.881,940.141,1221.28,0.7,-0.7,0,0
0.613383,264.342,943.457,1218.66,0.7,-0.7,0,0
0.6171,264.778,946.795,1215.99,0.7,-0.7,0,0
0.620818,265.186,950.179,1213.25,0.7,-0.7,0,0
0.624535,265.564,953.626,1210.43,0.7,-0.7,0,0
0.628253,265.913,957.144,1207.53,0.7,-0.7,0,0
0.63197,266.235,960.728,1204.54,0.7,-0.7,0,0
0.635688,266.537,964.362,1201.5,0.7,-0.7,0,0
0.639405,266.824,968.02,1198.43,0.7,-0.7,0,0
0.643123,267.105,971.673,1195.36,0.7,-0.7,0,0
0.64684,267.387,975.291,1192.31,0.7,-0.7,0,0
0.650558,267.678,978.849,1189.32,0.7,-0.7,0,0
0.654275,267.981,982.332,1186.39,0.7,-0.7,0,0
0.657993,268.298,985.735,1183.55,0.7,-0.7,0,0
0.66171,268.628,989.065,1180.77,0.7,-0.7,0,0
0.665428,268.967,992.34,1178.06,0.7,-0.7,0,0
0.669145,269.31,995.582,1175.39,0.7,-0.7,0,0
0.672862,269.653,998.818,1172.73,0.7,-0.7,0,0
0.67658,269.989,1002.07,1170.07,0.7,-0.7,0,0
0.680297,270.316,1005.35,1167.4,0.7,-0.7,0,0
0.684015,270.631,1008.68,1164.71,0.7,-0.7,0,0
0.687732,270.936,1012.03,1162,0.7,-0.7,0,0
0.69145,271.234,1015.41,1159.3,0.7,-0.7,0,0
0.695167,271.529,1018.77,1156.61,0.7,-0.7,0,0
0.698885,271.826,1022.11,1153.97,0.7,-0.7,0,0
0.702602,272.132,1025.38,1151.4,0.7,-0.7,0,0
0.70632,272.45,1028.56,1148.93,0.7,-0.7,0,0
0.710037,272.782,1031.65,1146.56,0.7,-0.7,0,0
0.713755,273.129,1034.63,1144.32,0.7,-0.7,0,0
0.717472,273.488,1037.51,1142.18,0.7,-0.7,0,0
0.72119,273.855,1040.31,1140.15,0.7,-0.7,0,0
0.724907,274.224,1043.04,1138.21,0.7,-0.7,0,0
0.728625,274.59,1045.73,1136.34,0.7,-0.7,0,0
0.732342,274.947,1048.4,1134.52,0.7,-0.7,0,0
0.736059,275.292,1051.06,1132.75,0.7,-0.7,0,0
0.739777,275.625,1053.71,1131.01,0.7,-0.7,0,0
0.743494,275.945,1056.35,1129.3,0.7,-0.7,0,0
0.747212,276.257,1058.98,1127.62,0.7,-0.7,0,0
0.750929,276.565,1061.57,1126,0.7,-0.7,0,0
0.754647,276.874,1064.1,1124.43,0.7,-0.7,0,0
0.758364,277.189,1066.55,1122.92,0.7,-0.7,0,0
0.762082,277.514,1068.9,1121.5,0.7,-0.7,0,0
0.765799,277.849,1071.15,1120.15,0.7,-0.7,0,0
0.769517,278.194,1073.28,1118.9,0.7,-0.7,0,0
0.773234,278.546,1075.3,1117.72,0.7,-0.7,0,0
0.776952,278.9,1077.23,1116.62,0.7,-0.7,0,0
0.780669,279.249,1079.07,1115.59,0.7,-0.7,0,0
0.784387,279.589,1080.83,1114.61,0.7,-0.7,0,0
0.788104,279.914,1082.54,1113.67,0.7,-0.7,0,0
0.791822,280.221,1084.21,1112.77,0.7,-0.7,0,0
0.795539,280.509,1085.84,1111.89,0.7,-0.7,0,0
0.799257,280.781,1087.43,1111.05,0.7,-0.7,0,0
0.802974,281.039,1088.98,1110.23,0.7,-0.7,0,0
0.806691,281.289,1090.48,1109.44,0.7,-0.7,0,0
0.810409,281.535,1091.93,1108.69,0.7,-0.7,0,0
0.814126,281.783,1093.3,1107.98,0.7,-0.7,0,0
0.817844,282.034,1094.6,1107.31,0.7,-0.7,0,0
0.821561,282.29,1095.82,1106.69,0.7,-0.7,0,0
0.825279,282.548,1096.96,1106.11,0.7,-0.7,0,0
0.828996,282.804,1098.02,1105.58,0.7,-0.7,0,0
0.832714,283.051,1099.01,1105.08,0.7,-0.7,0,0
0.836431,283.282,1099.93,1104.61,0.7,-0.7,0,0
0.840149,283.491,1100.79,1104.17,0.7,-0.7,0,0
0.843866,283.674,1101.6,1103.75,0.7,-0.7,0,0
0.847584,283.827,1102.37,1103.34,0.7,-0.7,0,0
0.851301,283.951,1103.1,1102.95,0.7,-0.7,0,0
0.855019,284.049,1103.79,1102.57,0.7,-0.7,0,0
0.858736,284.126,1104.45,1102.2,0.7,-0.7,0,0
0.862454,284.191,1105.07,1101.84,0.7,-0.7,0,0
0.866171,284.249,1105.65,1101.5,0.7,-0.7,0,0
0.869888,284.306,1106.19,1101.18,0.7,-0.7,0,0
0.873606,284.366,1106.68,1100.87,0.7,-0.7,0,0
0.877323,284.429,1107.13,1100.57,0.7,-0.7,0,0
0.881041,284.492,1107.53,1100.3,0.7,-0.7,0,0
0.884758,284.55,1107.89,1100.03,0.7,-0.7,0,0
0.888476,284.594,1108.2,1099.78,0.7,-0.7,0,0
0.892193,284.618,1108.46,1099.54,0.7,-0.7,0,0
0.895911,284.613,1108.69,1099.29,0.7,-0.7,0,0
0.899628,284.576,1108.87,1099.05,0.7,-0.7,0,0
0.903346,284.505,1109.03,1098.81,0.7,-0.7,0,0
0.907063,284.403,1109.15,1098.57,0.7,-0.7,0,0
0.910781,284.278,1109.24,1098.33,0.7,-0.7,0,0
0.914498,284.139,1109.31,1098.1,0.7,-0.7,0,0
0.918216,283.998,1109.34,1097.87,0.7,-0.7,0,0
0.921933,283.867,1109.36,1097.65,0.7,-0.7,0,0
0.925651,283.757,1109.34,1097.45,0.7,-0.7,0,0
0.929368,283.674,1109.3,1097.26,0.7,-0.7,0,0
0.933086,283.623,1109.24,1097.09,0.7,-0.7,0,0
0.936803,283.602,1109.14,1096.94,0.7,-0.7,0,0
0.94052,283.608,1109.01,1096.8,0.7,-0.7,0,0
0.944238,283.633,1108.85,1096.68,0.7,-0.7,0,0
0.947955,283.67,1108.66,1096.57,0.7,-0.7,0,0
0.951673,283.712,1108.42,1096.47,0.7,-0.7,0,0
0.95539,283.752,1108.15,1096.38,0.7,-0.7,0,0
0.959108,283.788,1107.85,1096.3,0.7,-0.7,0,0
0.962825,283.82,1107.51,1096.23,0.7,-0.7,0,0
0.966543,283.853,1107.15,1096.16,0.7,-0.7,0,0
0.97026,283.892,1106.76,1096.09,0.7,-0.7,0,0
0.973978,283.947,1106.35,1096.04,0.7,-0.7,0,0
0.977695,284.024,1105.92,1095.98,0.7,-0.7,0,0
0.981413,284.132,1105.48,1095.94,0.7,-0.7,0,0
0.98513,284.275,1105.03,1095.9,0.7,-0.7,0,0
0.988848,284.455,1104.57,1095.87,0.7,-0.7,0,0
0.992565,284.67,1104.09,1095.84,0.7,-0.7,0,0
0.996283,284.917,1103.59,1095.81,0.7,-0.7,0,0
1,285.19,1103.07,1095.79,0.7,-0.7,0,0
