0,-264.067,1064.036,1089.6312,0.7,-0.7,0.0,0.0
0.01,-263.712,1063.249,1092.1714,0.7,-0.7,0.0,0.0
0.02,-262.728,1061.787,1094.7842,0.7,-0.7,0.0,0.0
0.03,-262.627,1060.274,1097.8592,0.7,-0.7,0.0,0.0
0.04,-262.001,1058.268,1099.9025,0.7,-0.7,0.0,0.0
0.05,-261.86,1056.4,1101.642,0.7,-0.7,0.0,0.0
0.06,-261.381,1054.064,1104.418,0.7,-0.7,0.0,0.0
0.07,-261.346,1052.223,1107.196,0.7,-0.7,0.0,0.0
0.08,-261.253,1050.175,1109.02,0.7,-0.7,0.0,0.0
0.09,-260.191,1048.028,1112.543,0.7,-0.7,0.0,0.0
0.1,-261.011,1045.889,1114.101,0.7,-0.7,0.0,0.0
0.11,-260.451,1043.007,1118.522,0.7,-0.7,0.0,0.0
0.12,-261.178,1040.901,1119.869,0.7,-0.7,0.0,0.0
0.13,-260.754,1038.652,1122.328,0.7,-0.7,0.0,0.0
0.14,-261.528,1035.765,1125.702,0.7,-0.7,0.0,0.0
0.15,-260.244,1032.279,1128.715,0.7,-0.7,0.0,0.0
0.16,-261.94,1029.779,1130.487,0.7,-0.7,0.0,0.0
0.17,-263.079,1026.228,1134.202,0.7,-0.7,0.0,0.0
0.18,-263.592,1023.52,1136.743,0.7,-0.7,0.0,0.0
0.19,-263.554,1019.974,1140.873,0.7,-0.7,0.0,0.0
0.2,-262.948,1015.806,1144.463,0.7,-0.7,0.0,0.0
0.21,-263.298,1011.673,1147.89,0.7,-0.7,0.0,0.0
0.22,-264.686,1008.191,1151.59,0.7,-0.7,0.0,0.0
0.23,-264.802,1003.382,1154.611,0.7,-0.7,0.0,0.0
0.24,-265.56,999.407,1158.205,0.7,-0.7,0.0,0.0
0.25,-265.946,995.021,1161.676,0.7,-0.7,0.0,0.0
0.26,-266.192,990.53,1165.483,0.7,-0.7,0.0,0.0
0.27,-266.171,985.521,1170.319,0.7,-0.7,0.0,0.0
0.28,-266.375,981.018,1173.395,0.7,-0.7,0.0,0.0
0.29,-266.264,976.056,1177.579,0.7,-0.7,0.0,0.0
0.3,-266.464,970.751,1181.486,0.7,-0.7,0.0,0.0
0.31,-267.747,965.618,1185.793,0.7,-0.7,0.0,0.0
0.32,-267.144,959.993,1189.772,0.7,-0.7,0.0,0.0
0.33,-268.945,955.143,1193.602,0.7,-0.7,0.0,0.0
0.34,-268.374,949.025,1198.385,0.7,-0.7,0.0,0.0
0.35,-268.077,943.842,1203.225,0.7,-0.7,0.0,0.0
0.36,-268.552,937.848,1207.378,0.7,-0.7,0.0,0.0
0.37,-268.282,931.605,1212.29,0.7,-0.7,0.0,0.0
0.38,-267.256,926.083,1214.862,0.7,-0.7,0.0,0.0
0.39,-267.659,920.086,1219.715,0.7,-0.7,0.0,0.0
0.4,-267.82,913.918,1225.867,0.7,-0.7,0.0,0.0
0.41,-267.282,907.456,1230.112,0.7,-0.7,0.0,0.0
0.42,-266.306,901.556,1235.338,0.7,-0.7,0.0,0.0
0.43,-266.286,895.21,1239.202,0.7,-0.7,0.0,0.0
0.44,-265.958,889.411,1243.992,0.7,-0.7,0.0,0.0
0.45,-264.358,883.624,1248.103,0.7,-0.7,0.0,0.0
0.46,-264.292,877.811,1252.534,0.7,-0.7,0.0,0.0
0.47,-263.216,871.266,1257.203,0.7,-0.7,0.0,0.0
0.48,-263.635,864.945,1261.615,0.7,-0.7,0.0,0.0
0.49,-262.951,859.247,1266.164,0.7,-0.7,0.0,0.0
0.5,-262.906,853.029,1270.231,0.7,-0.7,0.0,0.0
0.51,-262.708,847.469,1274.083,0.7,-0.7,0.0,0.0
0.52,-262.317,840.964,1278.316,0.7,-0.7,0.0,0.0
0.53,-262.49,835.183,1280.569,0.7,-0.7,0.0,0.0
0.54,-263.345,828.49,1283.794,0.7,-0.7,0.0,0.0
0.55,-263.375,822.703,1287.774,0.7,-0.7,0.0,0.0
0.56,-262.634,816.785,1290.221,0.7,-0.7,0.0,0.0
0.57,-261.603,811.57,1292.928,0.7,-0.7,0.0,0.0
0.58,-261.706,805.856,1296.512,0.7,-0.7,0.0,0.0
0.59,-261.361,800.452,1299.545,0.7,-0.7,0.0,0.0
0.6,-260.78,795.417,1301.768,0.7,-0.7,0.0,0.0
0.61,-260.078,789.814,1305.59,0.7,-0.7,0.0,0.0
0.62,-259.655,784.476,1307.051,0.7,-0.7,0.0,0.0
0.63,-258.166,780.079,1309.58,0.7,-0.7,0.0,0.0
0.64,-257.354,775.06,1312.413,0.7,-0.7,0.0,0.0
0.65,-255.914,769.856,1314.662,0.7,-0.7,0.0,0.0
0.66,-253.748,765.085,1316.916,0.7,-0.7,0.0,0.0
0.67,-251.855,760.13,1318.206,0.7,-0.7,0.0,0.0
0.68,-250.411,755.348,1320.453,0.7,-0.7,0.0,0.0
0.69,-248.578,750.594,1322.956,0.7,-0.7,0.0,0.0
0.7,-247.28,745.912,1325.265,0.7,-0.7,0.0,0.0
0.71,-245.05,741.584,1327.63,0.7,-0.7,0.0,0.0
0.72,-244.099,738.098,1329.011,0.7,-0.7,0.0,0.0
0.73,-240.451,734.564,1331.669,0.7,-0.7,0.0,0.0
0.74,-238.644,731.288,1333.116,0.7,-0.7,0.0,0.0
0.75,-235.192,727.786,1335.148,0.7,-0.7,0.0,0.0
0.76,-233.073,724.85,1336.813,0.7,-0.7,0.0,0.0
0.77,-231.265,721.12,1338.633,0.7,-0.7,0.0,0.0
0.78,-229.731,718.414,1340.394,0.7,-0.7,0.0,0.0
0.79,-227.076,714.934,1341.734,0.7,-0.7,0.0,0.0
0.8,-224.945,711.682,1343.779,0.7,-0.7,0.0,0.0
0.81,-222.128,708.818,1344.897,0.7,-0.7,0.0,0.0
0.82,-218.583,705.799,1345.611,0.7,-0.7,0.0,0.0
0.83,-215.407,702.773,1347.799,0.7,-0.7,0.0,0.0
0.84,-212.707,699.941,1349.181,0.7,-0.7,0.0,0.0
0.85,-211.576,696.277,1349.381,0.7,-0.7,0.0,0.0
0.86,-209.383,693.553,1351.464,0.7,-0.7,0.0,0.0
0.87,-207.344,691.275,1352.504,0.7,-0.7,0.0,0.0
0.88,-205.569,688.919,1353.967,0.7,-0.7,0.0,0.0
0.89,-202.117,687.253,1353.698,0.7,-0.7,0.0,0.0
0.9,-201.224,686.194,1353.766,0.7,-0.7,0.0,0.0
0.91,-198.412,684.574,1353.99,0.7,-0.7,0.0,0.0
0.92,-195.962,684.243,1353.445,0.7,-0.7,0.0,0.0
0.93,-196.257,682.585,1352.797,0.7,-0.7,0.0,0.0
0.94,-194.214,681.362,1352.679,0.7,-0.7,0.0,0.0
0.95,-190.084,681.657,1352.271,0.7,-0.7,0.0,0.0
0.96,-188.921,680.727,1352.052,0.7,-0.7,0.0,0.0
0.97,-184.364,681.006,1351.781,0.7,-0.7,0.0,0.0
0.98,-180.669,681.326,1351.462,0.7,-0.7,0.0,0.0
0.99,-176.431,681.64,1351.207,0.7,-0.7,0.0,0.0
1,-173.588,681.827,1351.794,0.7,-0.7,0.0,0.0
1.01,-170.786,681.476,1351.092,0.7,-0.7,0.0,0.0
1.02,-166.818,681.826,1349.842,0.7,-0.7,0.0,0.0
1.03,-164.977,682,1348.976,0.7,-0.7,0.0,0.0
1.04,-162.687,682.907,1347.691,0.7,-0.7,0.0,0.0
1.05,-159.561,683.525,1345.534,0.7,-0.7,0.0,0.0
1.06,-156.198,683.626,1345.39,0.7,-0.7,0.0,0.0
1.07,-153.247,684.919,1343.758,0.7,-0.7,0.0,0.0
1.08,-150.149,685.718,1342.568,0.7,-0.7,0.0,0.0
1.09,-147.367,686.994,1342.159,0.7,-0.7,0.0,0.0
1.1,-144.379,687.595,1340.259,0.7,-0.7,0.0,0.0
1.11,-141.563,688.728,1339.252,0.7,-0.7,0.0,0.0
1.12,-139.441,690.11,1338.311,0.7,-0.7,0.0,0.0
1.13,-136.337,691.438,1337.433,0.7,-0.7,0.0,0.0
1.14,-132.232,692.803,1335.89,0.7,-0.7,0.0,0.0
1.15,-128.918,694.958,1334.695,0.7,-0.7,0.0,0.0
1.16,-127.572,696.088,1332.67,0.7,-0.7,0.0,0.0
1.17,-123.96,698.245,1330.947,0.7,-0.7,0.0,0.0
1.18,-121.26,700.106,1329.877,0.7,-0.7,0.0,0.0
1.19,-117.777,701.961,1328.228,0.7,-0.7,0.0,0.0
1.2,-114.992,703.963,1326.71,0.7,-0.7,0.0,0.0
1.21,-114.296,705.66,1325.584,0.7,-0.7,0.0,0.0
1.22,-110.727,707.541,1324.37,0.7,-0.7,0.0,0.0
1.23,-106.998,710.053,1323.352,0.7,-0.7,0.0,0.0
1.24,-104.756,712.055,1321.696,0.7,-0.7,0.0,0.0
1.25,-101.534,714.515,1320.498,0.7,-0.7,0.0,0.0
1.26,-97.7081,716.623,1319.079,0.7,-0.7,0.0,0.0
1.27,-94.7375,718.798,1317.61,0.7,-0.7,0.0,0.0
1.28,-92.0467,721.62,1316.465,0.7,-0.7,0.0,0.0
1.29,-90.9162,724.049,1314.293,0.7,-0.7,0.0,0.0
1.3,-88.123,726.764,1313.127,0.7,-0.7,0.0,0.0
1.31,-84.5162,729.503,1311.697,0.7,-0.7,0.0,0.0
1.32,-83.0617,731.974,1310.785,0.7,-0.7,0.0,0.0
1.33,-80.1255,734.572,1308.707,0.7,-0.7,0.0,0.0
1.34,-77.8494,738.077,1307.149,0.7,-0.7,0.0,0.0
1.35,-75.1457,741.189,1304.775,0.7,-0.7,0.0,0.0
1.36,-73.3559,743.888,1303.947,0.7,-0.7,0.0,0.0
1.37,-71.2012,746.728,1301.605,0.7,-0.7,0.0,0.0
1.38,-68.4281,749.686,1300.224,0.7,-0.7,0.0,0.0
1.39,-66.3909,752.883,1299.009,0.7,-0.7,0.0,0.0
1.4,-65.171,755.963,1296.537,0.7,-0.7,0.0,0.0
1.41,-62.7398,758.952,1294.401,0.7,-0.7,0.0,0.0
1.42,-61.496,761.871,1293.605,0.7,-0.7,0.0,0.0
1.43,-60.3211,765.408,1290.609,0.7,-0.7,0.0,0.0
1.44,-59.1011,768.186,1289.172,0.7,-0.7,0.0,0.0
1.45,-56.5377,771.29,1286.794,0.7,-0.7,0.0,0.0
1.46,-54.8222,774.451,1285.653,0.7,-0.7,0.0,0.0
1.47,-52.8543,777.446,1283.712,0.7,-0.7,0.0,0.0
1.48,-51.3971,780.621,1282.056,0.7,-0.7,0.0,0.0
1.49,-50.1994,783.602,1279.653,0.7,-0.7,0.0,0.0
1.5,-47.5708,787.2,1276.316,0.7,-0.7,0.0,0.0
1.51,-46.5421,790.787,1274.591,0.7,-0.7,0.0,0.0
1.52,-45.0248,793.875,1273.188,0.7,-0.7,0.0,0.0
1.53,-42.9899,797.56,1270.285,0.7,-0.7,0.0,0.0
1.54,-41.6495,800.605,1268.988,0.7,-0.7,0.0,0.0
1.55,-39.6416,803.988,1266.623,0.7,-0.7,0.0,0.0
1.56,-38.2688,807.775,1263.795,0.7,-0.7,0.0,0.0
1.57,-37.6037,811.67,1261.978,0.7,-0.7,0.0,0.0
1.58,-35.3104,815.012,1259.019,0.7,-0.7,0.0,0.0
1.59,-34.2506,818.843,1256.56,0.7,-0.7,0.0,0.0
1.6,-31.8648,822.09,1253.216,0.7,-0.7,0.0,0.0
1.61,-31.7165,826.218,1250.639,0.7,-0.7,0.0,0.0
1.62,-30.4128,830.518,1247.809,0.7,-0.7,0.0,0.0
1.63,-29.0824,834.025,1244.137,0.7,-0.7,0.0,0.0
1.64,-28.4984,838.136,1240.853,0.7,-0.7,0.0,0.0
1.65,-27.7339,841.884,1238.186,0.7,-0.7,0.0,0.0
1.66,-27.2505,845.801,1234.658,0.7,-0.7,0.0,0.0
1.67,-26.8546,849.741,1231.831,0.7,-0.7,0.0,0.0
1.68,-25.8071,853.188,1228.46,0.7,-0.7,0.0,0.0
1.69,-24.6999,857.229,1225.066,0.7,-0.7,0.0,0.0
1.7,-24.6467,861.015,1221.931,0.7,-0.7,0.0,0.0
1.71,-24.6654,865.044,1217.822,0.7,-0.7,0.0,0.0
1.72,-22.7906,868.67,1215.395,0.7,-0.7,0.0,0.0
1.73,-22.0918,872.754,1211.867,0.7,-0.7,0.0,0.0
1.74,-24.1698,876.337,1209.053,0.7,-0.7,0.0,0.0
1.75,-23.9073,880.748,1204.929,0.7,-0.7,0.0,0.0
1.76,-22.481,884.147,1202.116,0.7,-0.7,0.0,0.0
1.77,-22.408,888.128,1199.431,0.7,-0.7,0.0,0.0
1.78,-21.1329,891.882,1196.015,0.7,-0.7,0.0,0.0
1.79,-22.5251,896.588,1193.551,0.7,-0.7,0.0,0.0
1.8,-21.6509,900.093,1190.968,0.7,-0.7,0.0,0.0
1.81,-20.7003,904.435,1188.603,0.7,-0.7,0.0,0.0
1.82,-19.6174,908.206,1184.925,0.7,-0.7,0.0,0.0
1.83,-20.2986,912.384,1182.132,0.7,-0.7,0.0,0.0
1.84,-18.3072,916.484,1178.054,0.7,-0.7,0.0,0.0
1.85,-17.7096,920.76,1177.413,0.7,-0.7,0.0,0.0
1.86,-16.3381,924.387,1173.802,0.7,-0.7,0.0,0.0
1.87,-16.2029,929.028,1171.019,0.7,-0.7,0.0,0.0
1.88,-16.1476,933.529,1169.407,0.7,-0.7,0.0,0.0
1.89,-15.4732,937.571,1166.077,0.7,-0.7,0.0,0.0
1.9,-14.6181,941.976,1162.72,0.7,-0.7,0.0,0.0
1.91,-15.1405,946.504,1158.898,0.7,-0.7,0.0,0.0
1.92,-16.8751,950.852,1159.208,0.7,-0.7,0.0,0.0
1.93,-16.4779,954.383,1154.751,0.7,-0.7,0.0,0.0
1.94,-18.3441,958.719,1153.623,0.7,-0.7,0.0,0.0
1.95,-19.5179,962.981,1151.536,0.7,-0.7,0.0,0.0
1.96,-20.4172,966.789,1145.745,0.7,-0.7,0.0,0.0
1.97,-21.6846,970.929,1145.723,0.7,-0.7,0.0,0.0
1.98,-22.9054,974.763,1143.244,0.7,-0.7,0.0,0.0
1.99,-23.981,978.828,1140.236,0.7,-0.7,0.0,0.0
2,-26.177,982.544,1138.011,0.7,-0.7,0.0,0.0
2.01,-27.0982,986.329,1135.985,0.7,-0.7,0.0,0.0
2.02,-27.2948,990.25,1133.358,0.7,-0.7,0.0,0.0
2.03,-29.3462,993.823,1131.161,0.7,-0.7,0.0,0.0
2.04,-29.6334,997.536,1130.842,0.7,-0.7,0.0,0.0
2.05,-30.1541,1001.258,1128.496,0.7,-0.7,0.0,0.0
2.06,-30.4181,1004.701,1126.323,0.7,-0.7,0.0,0.0
2.07,-30.6861,1008.131,1124.146,0.7,-0.7,0.0,0.0
2.08,-30.2089,1011.665,1122.712,0.7,-0.7,0.0,0.0
2.09,-30.3874,1015.389,1121.179,0.7,-0.7,0.0,0.0
2.1,-30.5068,1019.16,1118.752,0.7,-0.7,0.0,0.0
2.11,-30.6489,1022.813,1116.985,0.7,-0.7,0.0,0.0
2.12,-30.6838,1026.455,1115.599,0.7,-0.7,0.0,0.0
2.13,-30.4762,1030.176,1113.309,0.7,-0.7,0.0,0.0
2.14,-31.4999,1033.754,1112.133,0.7,-0.7,0.0,0.0
2.15,-30.8817,1037.098,1113.328,0.7,-0.7,0.0,0.0
2.16,-30.0138,1040.626,1113.019,0.7,-0.7,0.0,0.0
2.17,-30.9381,1044.101,1111.739,0.7,-0.7,0.0,0.0
2.18,-30.5654,1047.311,1111.316,0.7,-0.7,0.0,0.0
2.19,-30.8548,1050.736,1111.377,0.7,-0.7,0.0,0.0
2.2,-31.5456,1054.199,1110.436,0.7,-0.7,0.0,0.0
2.21,-30.812,1057.379,1109.934,0.7,-0.7,0.0,0.0
2.22,-30.0217,1060.538,1109.007,0.7,-0.7,0.0,0.0
2.23,-29.854,1063.724,1108.227,0.7,-0.7,0.0,0.0
2.24,-29.6572,1066.593,1107.911,0.7,-0.7,0.0,0.0
2.25,-29.8792,1069.948,1107.793,0.7,-0.7,0.0,0.0
2.26,-30.77,1072.878,1109.109,0.7,-0.7,0.0,0.0
2.27,-30.5223,1075.686,1106.354,0.7,-0.7,0.0,0.0
2.28,-31.06,1077.983,1106.739,0.7,-0.7,0.0,0.0
2.29,-31.5721,1080.461,1104.811,0.7,-0.7,0.0,0.0
2.3,-31.7326,1082.618,1105.766,0.7,-0.7,0.0,0.0
2.31,-33.2636,1084.818,1106.352,0.7,-0.7,0.0,0.0
2.32,-33.6636,1087.073,1105.001,0.7,-0.7,0.0,0.0
2.33,-34.276,1088.626,1104.927,0.7,-0.7,0.0,0.0
2.34,-35.3902,1090.675,1104.926,0.7,-0.7,0.0,0.0
2.35,-36.0854,1092.357,1103.916,0.7,-0.7,0.0,0.0
2.36,-36.7264,1093.849,1102.505,0.7,-0.7,0.0,0.0
2.37,-38.0123,1095.42,1102.883,0.7,-0.7,0.0,0.0
2.38,-38.4095,1096.584,1101.289,0.7,-0.7,0.0,0.0
2.39,-39.2766,1097.903,1100.748,0.7,-0.7,0.0,0.0
2.4,-39.742,1098.704,1101.051,0.7,-0.7,0.0,0.0
2.41,-40.5561,1099.553,1101.027,0.7,-0.7,0.0,0.0
2.42,-41.3808,1100.566,1100.337,0.7,-0.7,0.0,0.0
2.43,-41.7645,1101.195,1100.492,0.7,-0.7,0.0,0.0
2.44,-42.3116,1101.856,1100.297,0.7,-0.7,0.0,0.0
2.45,-42.8489,1102.924,1100.705,0.7,-0.7,0.0,0.0
2.46,-42.8093,1102.992,1101.183,0.7,-0.7,0.0,0.0
2.47,-42.5967,1103.721,1101.124,0.7,-0.7,0.0,0.0
2.48,-42.8306,1104.185,1101.072,0.7,-0.7,0.0,0.0
2.49,-42.5629,1104.594,1101.295,0.7,-0.7,0.0,0.0
2.5,-42.5844,1105.072,1101.471,0.7,-0.7,0.0,0.0
2.51,-42.1887,1105.189,1101.302,0.7,-0.7,0.0,0.0
2.52,-41.3534,1105.479,1102.277,0.7,-0.7,0.0,0.0
2.53,-42.0567,1105.955,1102.343,0.7,-0.7,0.0,0.0
2.54,-41.9842,1106.139,1101.721,0.7,-0.7,0.0,0.0
2.55,-41.7398,1106.033,1101.753,0.7,-0.7,0.0,0.0
2.56,-41.5852,1105.997,1101.154,0.7,-0.7,0.0,0.0
2.57,-41.7473,1106.29,1100.246,0.7,-0.7,0.0,0.0
2.58,-42.1488,1105.863,1099.8207,0.7,-0.7,0.0,0.0
2.59,-42.0307,1105.318,1099.2538,0.7,-0.7,0.0,0.0
2.6,-41.7376,1105.09,1098.843,0.7,-0.7,0.0,0.0
2.61,-41.367,1104.598,1099.003,0.7,-0.7,0.0,0.0
2.62,-40.9774,1104.127,1098.6192,0.7,-0.7,0.0,0.0
2.63,-40.2008,1102.847,1098.8406,0.7,-0.7,0.0,0.0
2.64,-39.615,1101.885,1098.3394,0.7,-0.7,0.0,0.0
2.65,-39.5333,1100.574,1098.9825,0.7,-0.7,0.0,0.0
2.66,-39.1241,1099.398,1098.9102,0.7,-0.7,0.0,0.0
2.67,-39.2129,1098.452,1098.4545,0.7,-0.7,0.0,0.0
2.68,-38.8745,1096.989,1098.1002,0.7,-0.7,0.0,0.0
2.69,-38.5859,1095.432,1098.587,0.7,-0.7,0.0,0.0
2.7,-39.0265,1094.154,1099.4648,0.7,-0.7,0.0,0.0
